An R package to access data on cBioPortal • cbioportalR
…
To pull mutation data for a particular study ID you can use:

# As a result you will get a list of dataframes of 1) mutation + fusion and 2) cna.
df <- get_genetics(study_id = "nbl_amc_2012",
                   mutations = TRUE, 
                   cna = FALSE, 
                   fusions = TRUE)

mutations <- df$mut 
df %>% head()
#> $mut
#> # A tibble: 562 x 31
#>    uniqueSampleKey  uniquePatientKey molecularProfil… Tumor_Sample_Ba… patientId
#>    <chr>            <chr>            <chr>            <chr>            <chr>    
#>  1 TjU5NVQ6bmJsX2F… TjU5NTpuYmxfYW1… nbl_amc_2012_mu… N595T            N595     
#>  2 TjYwOFQ6bmJsX2F… TjYwODpuYmxfYW1… nbl_amc_2012_mu… N608T            N608     
#>  3 TjcxOFQ6bmJsX2F… TjcxODpuYmxfYW1… nbl_amc_2012_mu… N718T            N718     
#>  4 TjU3MlQ6bmJsX2F… TjU3MjpuYmxfYW1… nbl_amc_2012_mu… N572T            N572     
#>  5 Tjc0NFQ6bmJsX2F… Tjc0NDpuYmxfYW1… nbl_amc_2012_mu… N744T            N744     
#>  6 TjU2MVQ6bmJsX2F… TjU2MTpuYmxfYW1… nbl_amc_2012_mu… N561T            N561     
#>  7 TjU0OFQ6bmJsX2F… TjU0ODpuYmxfYW1… nbl_amc_2012_mu… N548T            N548     
#>  8 TjU3MlQ6bmJsX2F… TjU3MjpuYmxfYW1… nbl_amc_2012_mu… N572T            N572     
#>  9 TjU3NVQ6bmJsX2F… TjU3NTpuYmxfYW1… nbl_amc_2012_mu… N575T            N575     
#> 10 TjUwOFQ6bmJsX2F… TjUwODpuYmxfYW1… nbl_amc_2012_mu… N508T            N508     
#> # … with 552 more rows, and 26 more variables: entrezGeneId <int>,
#> #   studyId <chr>, center <chr>, Mutation_Status <chr>, validationStatus <chr>,
#> #   startPosition <int>, endPosition <int>, referenceAllele <chr>,
#> #   proteinChange <chr>, Variant_Classification <chr>,
#> #   functionalImpactScore <chr>, fisValue <dbl>, linkXvar <chr>, linkPdb <chr>,
#> #   linkMsa <chr>, ncbiBuild <chr>, Variant_Type <chr>, keyword <chr>,
#> #   chr <chr>, variantAllele <chr>, refseqMrnaId <chr>, proteinPosStart <int>,
#> #   proteinPosEnd <int>, HGVSp_Short <chr>, Protein_position <int>,
#> #   Hugo_Symbol <chr>
…
