An R package to access data on cBioPortal • cbioportalR
…
To pull mutation data for a particular study ID you can use:

# As a result you will get a list of dataframes of 1) mutation + fusion and 2) cna.
df <- get_genetics_by_study(study_id = "nbl_amc_2012")
#> ℹ Returning all data for the "nbl_amc_2012_mutations" molecular profile in the "nbl_amc_2012" study
#> ! No "cna" data returned. Error:  No molecular profile for `data_type = cna` found in "nbl_amc_2012".  See
#> `available_profiles('nbl_amc_2012')`
#> ! No "fusion" data returned. Error:  No molecular profile for `data_type = fusion` found in "nbl_amc_2012".
#> See `available_profiles('nbl_amc_2012')`

mutations <- df$mut 
df %>% head()
#> $mutation
#> # A tibble: 562 × 28
#>    uniqueSampleKey          uniquePatientKey molecularProfil… sampleId patientId
#>    <chr>                    <chr>            <chr>            <chr>    <chr>    
#>  1 TjA0MVQ6bmJsX2FtY18yMDEy TjA0MTpuYmxfYW1… nbl_amc_2012_mu… N041T    N041     
#>  2 TjA0MVQ6bmJsX2FtY18yMDEy TjA0MTpuYmxfYW1… nbl_amc_2012_mu… N041T    N041     
#>  3 TjA0MVQ6bmJsX2FtY18yMDEy TjA0MTpuYmxfYW1… nbl_amc_2012_mu… N041T    N041     
#>  4 TjA0MVQ6bmJsX2FtY18yMDEy TjA0MTpuYmxfYW1… nbl_amc_2012_mu… N041T    N041     
#>  5 TjA0MVQ6bmJsX2FtY18yMDEy TjA0MTpuYmxfYW1… nbl_amc_2012_mu… N041T    N041     
#>  6 TjA0MVQ6bmJsX2FtY18yMDEy TjA0MTpuYmxfYW1… nbl_amc_2012_mu… N041T    N041     
#>  7 TjA0MVQ6bmJsX2FtY18yMDEy TjA0MTpuYmxfYW1… nbl_amc_2012_mu… N041T    N041     
#>  8 TjA0MVQ6bmJsX2FtY18yMDEy TjA0MTpuYmxfYW1… nbl_amc_2012_mu… N041T    N041     
#>  9 TjA0MVQ6bmJsX2FtY18yMDEy TjA0MTpuYmxfYW1… nbl_amc_2012_mu… N041T    N041     
#> 10 TjA0MVQ6bmJsX2FtY18yMDEy TjA0MTpuYmxfYW1… nbl_amc_2012_mu… N041T    N041     
#> # … with 552 more rows, and 23 more variables: entrezGeneId <int>,
#> #   studyId <chr>, center <chr>, mutationStatus <chr>, validationStatus <chr>,
#> #   startPosition <int>, endPosition <int>, referenceAllele <chr>,
#> #   proteinChange <chr>, mutationType <chr>, functionalImpactScore <chr>,
#> #   fisValue <dbl>, linkXvar <chr>, linkPdb <chr>, linkMsa <chr>,
#> #   ncbiBuild <chr>, variantType <chr>, keyword <chr>, chr <chr>,
#> #   variantAllele <chr>, refseqMrnaId <chr>, proteinPosStart <int>, …
…
