…
```r
test_cbioportal_db()
#> ✔ You are successfully connected!
```

## Get Study Metadata

Now that we are successfully connected, we may want to view all studies available for our chosen database to find the correct `study_id` corresponding to the data we want to pull. All studies have a unique identifier in the database. You can view all studies available in your database with the following:


```r
all_studies <- available_studies()
all_studies
#> # A tibble: 375 × 13
#>    studyId    name  description publicStudy groups status importDate allSampleCount readPermission cancerTypeId
#>    <chr>      <chr> <chr>       <lgl>       <chr>   <int> <chr>               <int> <lgl>          <chr>       
#>  1 acc_tcga   Adre… "TCGA Adre… TRUE        "PUBL…      0 2022-10-2…             92 TRUE           acc         
#>  2 all_stjud… Acut… "Comprehen… TRUE        "PUBL…      0 2022-10-2…             93 TRUE           bll         
#>  3 all_stjud… Hypo… "Whole gen… TRUE        ""          0 2022-10-2…             44 TRUE           myeloid     
#>  4 acbc_mskc… Aden… "Whole exo… TRUE        "ACYC…      0 2022-10-2…             12 TRUE           acbc        
#>  5 acyc_fmi_… Aden… "Targeted … TRUE        "ACYC…      0 2022-10-2…             28 TRUE           acyc        
#>  6 acyc_jhu_… Aden… "Whole-gen… TRUE        "ACYC…      0 2022-10-2…             25 TRUE           acyc        
#>  7 acyc_mda_… Aden… "WGS of 21… TRUE        "ACYC…      0 2022-10-2…            102 TRUE           acyc        
#>  8 acyc_sang… Aden… "Whole exo… TRUE        "ACYC…      0 2022-10-2…             24 TRUE           acyc        
#>  9 all_stjud… Acut… "Whole-gen… TRUE        "PUBL…      0 2022-10-2…             73 TRUE           bll         
#> 10 all_phase… Pedi… "Whole gen… TRUE        "NCI-…      0 2022-10-2…           1978 TRUE           bll         
#> # ℹ 365 more rows
#> # ℹ 3 more variables: referenceGenome <chr>, pmid <chr>, citation <chr>
```
…
df_pairs <- df_pairs %>%
  select(patientId, studyId)
```

Now we pass this data frame to `get_genetics_by_patient()`


```r
all_patient_clinical <- get_clinical_by_patient(patient_study_pairs = df_pairs,
                                                clinical_attribute = in_both)

all_patient_clinical %>%
  select(-contains("unique"))
#> # A tibble: 34 × 4
#>    patientId studyId         clinicalAttributeId value 
#>    <chr>     <chr>           <chr>               <chr> 
#>  1 P-0001453 blca_nmibc_2017 SAMPLE_COUNT        1     
#>  2 P-0001453 blca_nmibc_2017 SEX                 Male  
#>  3 P-0002166 blca_nmibc_2017 SAMPLE_COUNT        1     
#>  4 P-0002166 blca_nmibc_2017 SEX                 Male  
#>  5 P-0003238 blca_nmibc_2017 SAMPLE_COUNT        1     
#>  6 P-0003238 blca_nmibc_2017 SEX                 Male  
#>  7 P-0003257 blca_nmibc_2017 SAMPLE_COUNT        1     
#>  8 P-0003257 blca_nmibc_2017 SEX                 Female
#>  9 P-0003261 blca_nmibc_2017 SAMPLE_COUNT        1     
#> 10 P-0003261 blca_nmibc_2017 SEX                 Male  
#> # ℹ 24 more rows
```
