Tutorial: Overview of Data Retrieval Workflow • cbioportalR
…
You can use test_cbioportal_db at any time throughout your session to check your connection. This can be helpful when troubleshooting issues with your API calls.

test_cbioportal_db()
#> ✔ You are successfully connected!

Get Study Metadata

Now that we are successfully connected, we may want to view all studies available for our chosen database to find the correct study_id corresponding to the data we want to pull. All studies have a unique identifier in the database. You can view all studies available in your database with the following:

all_studies <- available_studies()
all_studies
#> # A tibble: 340 × 13
#>    studyId name  description publicStudy pmid  citation groups status importDate
#>    <chr>   <chr> <chr>       <lgl>       <chr> <chr>    <chr>   <int> <chr>     
#>  1 prad_m… Pros… "Genome-wi… TRUE        2502… Hierony… "PUBL…      0 2021-04-2…
#>  2 pan_or… Chin… "Landscape… TRUE        NA    NA       ""          0 2021-09-2…
#>  3 crc_ni… Disp… "Targeted … TRUE        NA    NA       ""          0 2021-10-2…
#>  4 acc_tc… Adre… "TCGA Adre… TRUE        NA    NA       "PUBL…      0 2021-10-2…
#>  5 acyc_s… Aden… "Whole exo… TRUE        2377… Stephen… "ACYC…      0 2021-10-2…
#>  6 all_st… Acut… "Whole-gen… TRUE        2777… Zhang e… "PUBL…      0 2021-10-2…
#>  7 all_ph… Pedi… "Whole gen… TRUE        NA    NA       "NCI-…      0 2021-10-2…
#>  8 all_st… Acut… "Comprehen… TRUE        2573… Anderss… "PUBL…      0 2021-11-0…
#>  9 acbc_m… Aden… "Whole exo… TRUE        2609… Martelo… "ACYC…      0 2021-11-0…
#> 10 acyc_j… Aden… "Whole-gen… TRUE        2686… Rettig … "ACYC…      0 2021-11-0…
#> # … with 330 more rows, and 4 more variables: allSampleCount <int>,
#> #   readPermission <lgl>, cancerTypeId <chr>, referenceGenome <chr>
…
