Get All Patient IDs in a Study — available_patients • cbioportalR
…
    Value

    A dataframe of patient_ids in a given study

    Examples

# \dontrun{
set_cbioportal_db("public")
#> ✔ You are successfully connected!
#> ✔ base_url for this R session is now set to "www.cbioportal.org/api" 
available_samples(study_id = "acc_tcga")
#> # A tibble: 92 × 4
#>    patientId    sampleId        sampleType          studyId 
#>    <chr>        <chr>           <chr>               <chr>   
#>  1 TCGA-OR-A5J1 TCGA-OR-A5J1-01 Primary Solid Tumor acc_tcga
#>  2 TCGA-OR-A5J2 TCGA-OR-A5J2-01 Primary Solid Tumor acc_tcga
#>  3 TCGA-OR-A5J3 TCGA-OR-A5J3-01 Primary Solid Tumor acc_tcga
#>  4 TCGA-OR-A5J4 TCGA-OR-A5J4-01 Primary Solid Tumor acc_tcga
#>  5 TCGA-OR-A5J5 TCGA-OR-A5J5-01 Primary Solid Tumor acc_tcga
#>  6 TCGA-OR-A5J6 TCGA-OR-A5J6-01 Primary Solid Tumor acc_tcga
#>  7 TCGA-OR-A5J7 TCGA-OR-A5J7-01 Primary Solid Tumor acc_tcga
#>  8 TCGA-OR-A5J8 TCGA-OR-A5J8-01 Primary Solid Tumor acc_tcga
#>  9 TCGA-OR-A5J9 TCGA-OR-A5J9-01 Primary Solid Tumor acc_tcga
#> 10 TCGA-OR-A5JA TCGA-OR-A5JA-01 Primary Solid Tumor acc_tcga
#> # ℹ 82 more rows
…
