Internal Function to Get Mutations/CNA/Fusion By Sample ID — .get_data_by_sample • cbioportalR
…
    A dataframe of mutations, CNAs or fusions.

    Examples

# \dontrun{
set_cbioportal_db("public")
#> ✔ You are successfully connected!
#> ✔ base_url for this R session is now set to "www.cbioportal.org/api" 
.get_data_by_sample(sample_id = c("TCGA-OR-A5J2-01","TCGA-OR-A5J6-01"),
 study_id = "acc_tcga", data_type = "mutation")
#> The following parameters were used in query:
#> Study ID: "acc_tcga"
#> Molecular Profile ID: "acc_tcga_mutations"
#> Genes: "All available genes"
#> # A tibble: 173 × 28
#>    hugoGeneSymbol entrezGeneId uniqueSampleKey                  uniquePatientKey
#>    <chr>                 <int> <chr>                            <chr>           
#>  1 ZFPM1                161882 VENHQS1PUi1BNUoyLTAxOmFjY190Y2dh VENHQS1PUi1BNUo…
#>  2 ZNF787               126208 VENHQS1PUi1BNUoyLTAxOmFjY190Y2dh VENHQS1PUi1BNUo…
#>  3 PODXL                  5420 VENHQS1PUi1BNUoyLTAxOmFjY190Y2dh VENHQS1PUi1BNUo…
#>  4 CCDC102A              92922 VENHQS1PUi1BNUoyLTAxOmFjY190Y2dh VENHQS1PUi1BNUo…
#>  5 TVP23C               201158 VENHQS1PUi1BNUoyLTAxOmFjY190Y2dh VENHQS1PUi1BNUo…
#>  6 ZNF628                89887 VENHQS1PUi1BNUoyLTAxOmFjY190Y2dh VENHQS1PUi1BNUo…
#>  7 TBP                    6908 VENHQS1PUi1BNUoyLTAxOmFjY190Y2dh VENHQS1PUi1BNUo…
#>  8 SEMA5B                54437 VENHQS1PUi1BNUoyLTAxOmFjY190Y2dh VENHQS1PUi1BNUo…
#>  9 CELSR2                 1952 VENHQS1PUi1BNUoyLTAxOmFjY190Y2dh VENHQS1PUi1BNUo…
#> 10 MUC5B                727897 VENHQS1PUi1BNUoyLTAxOmFjY190Y2dh VENHQS1PUi1BNUo…
#> # ℹ 163 more rows
#> # ℹ 24 more variables: molecularProfileId <chr>, sampleId <chr>,
#> #   patientId <chr>, studyId <chr>, center <chr>, mutationStatus <chr>,
#> #   validationStatus <chr>, tumorAltCount <int>, tumorRefCount <int>,
#> #   normalAltCount <int>, normalRefCount <int>, startPosition <int>,
#> #   endPosition <int>, referenceAllele <chr>, proteinChange <chr>,
#> #   mutationType <chr>, ncbiBuild <chr>, variantType <chr>, keyword <chr>, …
…
