Internal Function to Get Mutations/CNA/Fusion By Study ID — .get_data_by_study • cbioportalR
…
# \donttest{
set_cbioportal_db("public")
#> ✔ You are successfully connected!
#> ✔ base_url for this R session is now set to "www.cbioportal.org/api" 
.get_data_by_study(study_id = "prad_msk_2019", data_type = "cna")
#> ℹ Returning all data for the "prad_msk_2019_cna" molecular profile in the "prad_msk_2019" study
#> # A tibble: 1 × 9
#>   hugoGeneSymbol entrezGeneId uniqueSampleKey  uniquePatientKey molecularProfil…
#>   <chr>                 <int> <chr>            <chr>            <chr>           
#> 1 PTEN                   5728 c19DXzM2OTI0TF9… cF9DXzM2OTI0TDp… prad_msk_2019_c…
#> # … with 4 more variables: sampleId <chr>, patientId <chr>, studyId <chr>,
#> #   alteration <int>
.get_data_by_study(study_id = "prad_msk_2019", data_type = "mutation")
#> ℹ Returning all data for the "prad_msk_2019_mutations" molecular profile in the "prad_msk_2019" study
#> # A tibble: 26 × 33
#>    hugoGeneSymbol entrezGeneId uniqueSampleKey uniquePatientKey molecularProfil…
#>    <chr>                 <int> <chr>           <chr>            <chr>           
#>  1 ZFHX3                   463 c19DX004WDQyVF… cF9DX004WDQyVDp… prad_msk_2019_m…
#>  2 ZFHX3                   463 c19DX004WDQyVF… cF9DX004WDQyVDp… prad_msk_2019_m…
#>  3 ATR                     545 c19DX004WDQyVF… cF9DX004WDQyVDp… prad_msk_2019_m…
#>  4 BCL2                    596 c19DX004WDQyVF… cF9DX004WDQyVDp… prad_msk_2019_m…
#>  5 ETV1                   2115 c19DX1A4SzNUUl… cF9DX1A4SzNUUjp… prad_msk_2019_m…
#>  6 ETV1                   2115 c19DX1A4SzNUUl… cF9DX1A4SzNUUjp… prad_msk_2019_m…
#>  7 FAT1                   2195 c19DX004WDQyVF… cF9DX004WDQyVDp… prad_msk_2019_m…
#>  8 MSH6                   2956 c19DX1A4SzNUUl… cF9DX1A4SzNUUjp… prad_msk_2019_m…
#>  9 MSH6                   2956 c19DX1A4SzNUUl… cF9DX1A4SzNUUjp… prad_msk_2019_m…
#> 10 FOXA1                  3169 c19DX0UwS0pGSl… cF9DX0UwS0pGSjp… prad_msk_2019_m…
#> # … with 16 more rows, and 28 more variables: sampleId <chr>, patientId <chr>,
#> #   studyId <chr>, center <chr>, mutationStatus <chr>, validationStatus <chr>,
#> #   tumorAltCount <int>, tumorRefCount <int>, normalAltCount <int>,
#> #   normalRefCount <int>, startPosition <int>, endPosition <int>,
#> #   referenceAllele <chr>, proteinChange <chr>, mutationType <chr>,
#> #   functionalImpactScore <chr>, fisValue <dbl>, linkXvar <chr>, linkPdb <chr>,
#> #   linkMsa <chr>, ncbiBuild <chr>, variantType <chr>, keyword <chr>, …
…
.get_data_by_study(molecular_profile_id = "prad_msk_2019_cna", data_type = "cna")
#> ℹ Returning all data for the "prad_msk_2019_cna" molecular profile in the "prad_msk_2019" study
#> # A tibble: 1 × 9
#>   hugoGeneSymbol entrezGeneId uniqueSampleKey  uniquePatientKey molecularProfil…
#>   <chr>                 <int> <chr>            <chr>            <chr>           
#> 1 PTEN                   5728 c19DXzM2OTI0TF9… cF9DXzM2OTI0TDp… prad_msk_2019_c…
#> # … with 4 more variables: sampleId <chr>, patientId <chr>, studyId <chr>,
#> #   alteration <int>
.get_data_by_study(molecular_profile_id = "prad_msk_2019_mutations", data_type = "mutation")
#> ℹ Returning all data for the "prad_msk_2019_mutations" molecular profile in the "prad_msk_2019" study
#> # A tibble: 26 × 33
#>    hugoGeneSymbol entrezGeneId uniqueSampleKey uniquePatientKey molecularProfil…
#>    <chr>                 <int> <chr>           <chr>            <chr>           
#>  1 ZFHX3                   463 c19DX004WDQyVF… cF9DX004WDQyVDp… prad_msk_2019_m…
#>  2 ZFHX3                   463 c19DX004WDQyVF… cF9DX004WDQyVDp… prad_msk_2019_m…
#>  3 ATR                     545 c19DX004WDQyVF… cF9DX004WDQyVDp… prad_msk_2019_m…
#>  4 BCL2                    596 c19DX004WDQyVF… cF9DX004WDQyVDp… prad_msk_2019_m…
#>  5 ETV1                   2115 c19DX1A4SzNUUl… cF9DX1A4SzNUUjp… prad_msk_2019_m…
#>  6 ETV1                   2115 c19DX1A4SzNUUl… cF9DX1A4SzNUUjp… prad_msk_2019_m…
#>  7 FAT1                   2195 c19DX004WDQyVF… cF9DX004WDQyVDp… prad_msk_2019_m…
#>  8 MSH6                   2956 c19DX1A4SzNUUl… cF9DX1A4SzNUUjp… prad_msk_2019_m…
#>  9 MSH6                   2956 c19DX1A4SzNUUl… cF9DX1A4SzNUUjp… prad_msk_2019_m…
#> 10 FOXA1                  3169 c19DX0UwS0pGSl… cF9DX0UwS0pGSjp… prad_msk_2019_m…
#> # … with 16 more rows, and 28 more variables: sampleId <chr>, patientId <chr>,
#> #   studyId <chr>, center <chr>, mutationStatus <chr>, validationStatus <chr>,
#> #   tumorAltCount <int>, tumorRefCount <int>, normalAltCount <int>,
#> #   normalRefCount <int>, startPosition <int>, endPosition <int>,
#> #   referenceAllele <chr>, proteinChange <chr>, mutationType <chr>,
#> #   functionalImpactScore <chr>, fisValue <dbl>, linkXvar <chr>, linkPdb <chr>,
#> #   linkMsa <chr>, ncbiBuild <chr>, variantType <chr>, keyword <chr>, …
…
