Get Mutations By Sample ID — get_mutations_by_sample • cbioportalR
…
    Value

A data frame of mutations (maf file format)

    Examples

get_mutations_by_sample(sample_id = c("TCGA-OR-A5J2-01","TCGA-OR-A5J6-01"),
study_id = "acc_tcga",
base_url = "public")
#> The following parameters were used in query:
#> Study ID: "acc_tcga"
#> Molecular Profile ID: "acc_tcga_mutations"
#> Genes: "All available genes"
#> # A tibble: 173 × 33
#>    hugoGeneSymbol entrezGeneId uniqueSampleKey uniquePatientKey molecularProfil…
#>    <chr>                 <int> <chr>           <chr>            <chr>           
#>  1 ZFPM1                161882 VENHQS1PUi1BNU… VENHQS1PUi1BNUo… acc_tcga_mutati…
#>  2 ZFPM1                161882 VENHQS1PUi1BNU… VENHQS1PUi1BNUo… acc_tcga_mutati…
#>  3 ZFPM1                161882 VENHQS1PUi1BNU… VENHQS1PUi1BNUo… acc_tcga_mutati…
#>  4 ZFPM1                161882 VENHQS1PUi1BNU… VENHQS1PUi1BNUo… acc_tcga_mutati…
#>  5 ZNF787               126208 VENHQS1PUi1BNU… VENHQS1PUi1BNUo… acc_tcga_mutati…
#>  6 PODXL                  5420 VENHQS1PUi1BNU… VENHQS1PUi1BNUo… acc_tcga_mutati…
#>  7 CCDC102A              92922 VENHQS1PUi1BNU… VENHQS1PUi1BNUo… acc_tcga_mutati…
#>  8 TVP23C               201158 VENHQS1PUi1BNU… VENHQS1PUi1BNUo… acc_tcga_mutati…
#>  9 RINL                 126432 VENHQS1PUi1BNU… VENHQS1PUi1BNUo… acc_tcga_mutati…
#> 10 ZNF628                89887 VENHQS1PUi1BNU… VENHQS1PUi1BNUo… acc_tcga_mutati…
#> # … with 163 more rows, and 28 more variables: sampleId <chr>, patientId <chr>,
#> #   studyId <chr>, center <chr>, mutationStatus <chr>, validationStatus <chr>,
#> #   tumorAltCount <int>, tumorRefCount <int>, normalAltCount <int>,
#> #   normalRefCount <int>, startPosition <int>, endPosition <int>,
#> #   referenceAllele <chr>, proteinChange <chr>, mutationType <chr>,
#> #   functionalImpactScore <chr>, fisValue <dbl>, linkXvar <chr>, linkPdb <chr>,
#> #   linkMsa <chr>, ncbiBuild <chr>, variantType <chr>, keyword <chr>, …
…
