Get segmentation data — get_segments • cbioportalR
…
study_id
A character vector of lenght 1 indicating study_id.
Default is "all_tcga_studies" which queries all TCGA cancer studies, unless you
are connected to MSKCC host in which case default is "mskimpact".

    Value

    Returns a dataframe of segmentation data

    Examples

get_cbioportal_db('public')
get_segments(sample_ids = "TCGA-OR-A5J2-01", study_id = "acc_tcga")
#> Warning: No CBIOPORTAL_TOKEN in `.Renviron`. Try `usethis::edit_r_environ()` to add a token
#> # A tibble: 131 × 10
#>    uniqueSampleKey  uniquePatientKey patientId  start    end segmentMean studyId
#>    <chr>            <chr>            <chr>      <int>  <int>       <dbl> <chr>  
#>  1 VENHQS1PUi1BNUo… VENHQS1PUi1BNUo… TCGA-OR-… 3.22e6 4.75e6      -0.224 acc_tc…
#>  2 VENHQS1PUi1BNUo… VENHQS1PUi1BNUo… TCGA-OR-… 4.75e6 1.13e7      -0.839 acc_tc…
#>  3 VENHQS1PUi1BNUo… VENHQS1PUi1BNUo… TCGA-OR-… 1.14e7 1.28e7       0.174 acc_tc…
#>  4 VENHQS1PUi1BNUo… VENHQS1PUi1BNUo… TCGA-OR-… 1.28e7 3.59e7      -0.226 acc_tc…
#>  5 VENHQS1PUi1BNUo… VENHQS1PUi1BNUo… TCGA-OR-… 3.59e7 3.60e7       0.478 acc_tc…
#>  6 VENHQS1PUi1BNUo… VENHQS1PUi1BNUo… TCGA-OR-… 3.60e7 4.23e7      -0.226 acc_tc…
#>  7 VENHQS1PUi1BNUo… VENHQS1PUi1BNUo… TCGA-OR-… 4.23e7 4.24e7       0.491 acc_tc…
#>  8 VENHQS1PUi1BNUo… VENHQS1PUi1BNUo… TCGA-OR-… 4.24e7 4.47e7      -0.243 acc_tc…
#>  9 VENHQS1PUi1BNUo… VENHQS1PUi1BNUo… TCGA-OR-… 4.48e7 4.48e7       0.441 acc_tc…
#> 10 VENHQS1PUi1BNUo… VENHQS1PUi1BNUo… TCGA-OR-… 4.48e7 5.33e7      -0.238 acc_tc…
#> # … with 121 more rows, and 3 more variables: sampleId <chr>, chromosome <chr>,
#> #   numberOfProbes <int>
…
