Get information about available studies in a cBioPortal instance — get_studies • cbioportalR
…
    study_id
Character vector of one single study ID (e.g. "mskimpact") or NULL.
Default is NULL which returns all available studies. Currently multiple study ids are not supported.

    Value

    A tibble of study meta data

    Examples

get_cbioportal_db("public")
get_studies()
#> Warning: No CBIOPORTAL_TOKEN in `.Renviron`. Try `usethis::edit_r_environ()` to add a token
#> # A tibble: 340 × 13
#>    name          description publicStudy pmid  citation groups status importDate
#>    <chr>         <chr>       <lgl>       <chr> <chr>    <chr>   <int> <chr>     
#>  1 Prostate Ade… "Genome-wi… TRUE        2502… Hierony… "PUBL…      0 2021-04-2…
#>  2 China Pan-ca… "Landscape… TRUE        NA    NA       ""          0 2021-09-2…
#>  3 Disparities … "Targeted … TRUE        NA    NA       ""          0 2021-10-2…
#>  4 Adrenocortic… "TCGA Adre… TRUE        NA    NA       "PUBL…      0 2021-10-2…
#>  5 Adenoid Cyst… "Whole exo… TRUE        2377… Stephen… "ACYC…      0 2021-10-2…
#>  6 Acute Lympho… "Whole-gen… TRUE        2777… Zhang e… "PUBL…      0 2021-10-2…
#>  7 Pediatric Ac… "Whole gen… TRUE        NA    NA       "NCI-…      0 2021-10-2…
#>  8 Acute Lympho… "Comprehen… TRUE        2573… Anderss… "PUBL…      0 2021-11-0…
#>  9 Adenoid Cyst… "Whole exo… TRUE        2609… Martelo… "ACYC…      0 2021-11-0…
#> 10 Adenoid Cyst… "Whole-gen… TRUE        2686… Rettig … "ACYC…      0 2021-11-0…
#> # … with 330 more rows, and 5 more variables: allSampleCount <int>,
#> #   readPermission <lgl>, studyId <chr>, cancerTypeId <chr>,
#> #   referenceGenome <chr>
…
