Get all available clinical data for a specified study — get_clinical_by_study • cbioportalR
…
base_url
The database URL to query.
If NULL will default to URL set with set_cbioportal_db(<your_db>)

    Value

a dataframe of all available clinical attributes and their values

    Examples

get_clinical_by_study(study_id = "acc_tcga",
 clinical_attribute = "CANCER_TYPE", base_url = 'www.cbioportal.org/api')
#> # A tibble: 92 × 8
#>    uniqueSampleKey  uniquePatientKey sampleId patientId studyId clinicalAttribu…
#>    <chr>            <chr>            <chr>    <chr>     <chr>   <chr>           
#>  1 VENHQS1PUi1BNUo… VENHQS1PUi1BNUo… TCGA-OR… TCGA-OR-… acc_tc… CANCER_TYPE     
#>  2 VENHQS1PUi1BNUo… VENHQS1PUi1BNUo… TCGA-OR… TCGA-OR-… acc_tc… CANCER_TYPE     
#>  3 VENHQS1PUi1BNUo… VENHQS1PUi1BNUo… TCGA-OR… TCGA-OR-… acc_tc… CANCER_TYPE     
#>  4 VENHQS1PUi1BNUo… VENHQS1PUi1BNUo… TCGA-OR… TCGA-OR-… acc_tc… CANCER_TYPE     
#>  5 VENHQS1PUi1BNUo… VENHQS1PUi1BNUo… TCGA-OR… TCGA-OR-… acc_tc… CANCER_TYPE     
#>  6 VENHQS1PUi1BNUo… VENHQS1PUi1BNUo… TCGA-OR… TCGA-OR-… acc_tc… CANCER_TYPE     
#>  7 VENHQS1PUi1BNUo… VENHQS1PUi1BNUo… TCGA-OR… TCGA-OR-… acc_tc… CANCER_TYPE     
#>  8 VENHQS1PUi1BNUo… VENHQS1PUi1BNUo… TCGA-OR… TCGA-OR-… acc_tc… CANCER_TYPE     
#>  9 VENHQS1PUi1BNUo… VENHQS1PUi1BNUo… TCGA-OR… TCGA-OR-… acc_tc… CANCER_TYPE     
#> 10 VENHQS1PUi1BNUp… VENHQS1PUi1BNUp… TCGA-OR… TCGA-OR-… acc_tc… CANCER_TYPE     
#> # … with 82 more rows, and 2 more variables: value <chr>, dataLevel <chr>

# \donttest{
get_clinical_by_study(study_id = "acc_tcga", base_url = 'www.cbioportal.org/api')
#> ! Sample Level Clinical Data: No `clinical_attribute` passed. Defaulting to returning all clinical attributes in "acc_tcga" study
#> ! Patient Level Clinical Data: No `clinical_attribute` passed. Defaulting to returning all clinical attributes in "acc_tcga" study
#> # A tibble: 6,292 × 6
#>    uniquePatientKey           patientId studyId clinicalAttribu… value dataLevel
#>    <chr>                      <chr>     <chr>   <chr>            <chr> <chr>    
#>  1 VENHQS1PUi1BNUoxOmFjY190Y… TCGA-OR-… acc_tc… AGE              58    PATIENT  
#>  2 VENHQS1PUi1BNUoxOmFjY190Y… TCGA-OR-… acc_tc… AJCC_PATHOLOGIC… Stag… PATIENT  
#>  3 VENHQS1PUi1BNUoxOmFjY190Y… TCGA-OR-… acc_tc… ATYPICAL_MITOTI… Atyp… PATIENT  
#>  4 VENHQS1PUi1BNUoxOmFjY190Y… TCGA-OR-… acc_tc… CAPSULAR_INVASI… Inva… PATIENT  
#>  5 VENHQS1PUi1BNUoxOmFjY190Y… TCGA-OR-… acc_tc… CLIN_M_STAGE     M0    PATIENT  
#>  6 VENHQS1PUi1BNUoxOmFjY190Y… TCGA-OR-… acc_tc… CT_SCAN_PREOP_R… [Unk… PATIENT  
#>  7 VENHQS1PUi1BNUoxOmFjY190Y… TCGA-OR-… acc_tc… CYTOPLASM_PRESE… Cyto… PATIENT  
#>  8 VENHQS1PUi1BNUoxOmFjY190Y… TCGA-OR-… acc_tc… DAYS_TO_INITIAL… 0     PATIENT  
#>  9 VENHQS1PUi1BNUoxOmFjY190Y… TCGA-OR-… acc_tc… DFS_MONTHS       24.77 PATIENT  
#> 10 VENHQS1PUi1BNUoxOmFjY190Y… TCGA-OR-… acc_tc… DFS_STATUS       1:Re… PATIENT  
#> # … with 6,282 more rows
…
