Get Mutations By Study ID — get_mutations_by_study • cbioportalR
…
base_url
The database URL to query
If NULL will default to URL set with set_cbioportal_db(<your_db>)

    Value

    A dataframe of mutations (maf file format)

    Examples

# \dontrun{
get_mutations_by_study(study_id = "prad_msk_2019")
#> ℹ Returning all data for the "prad_msk_2019_mutations" molecular profile in the "prad_msk_2019" study
#> # A tibble: 26 × 28
#>    hugoGeneSymbol entrezGeneId uniqueSampleKey                  uniquePatientKey
#>    <chr>                 <int> <chr>                            <chr>           
#>  1 ZFHX3                   463 c19DX004WDQyVF9QMDAyX2Q6cHJhZF9… cF9DX004WDQyVDp…
#>  2 ZFHX3                   463 c19DX004WDQyVF9QMDAyX2Q6cHJhZF9… cF9DX004WDQyVDp…
#>  3 ATR                     545 c19DX004WDQyVF9QMDAyX2Q6cHJhZF9… cF9DX004WDQyVDp…
#>  4 BCL2                    596 c19DX004WDQyVF9QMDAyX2Q6cHJhZF9… cF9DX004WDQyVDp…
#>  5 ETV1                   2115 c19DX1A4SzNUUl9QMDAxX2Q6cHJhZF9… cF9DX1A4SzNUUjp…
#>  6 ETV1                   2115 c19DX1A4SzNUUl9QMDAzX2Q6cHJhZF9… cF9DX1A4SzNUUjp…
#>  7 FAT1                   2195 c19DX004WDQyVF9QMDAyX2Q6cHJhZF9… cF9DX004WDQyVDp…
#>  8 MSH6                   2956 c19DX1A4SzNUUl9QMDAyX2Q6cHJhZF9… cF9DX1A4SzNUUjp…
#>  9 MSH6                   2956 c19DX1A4SzNUUl9QMDAzX2Q6cHJhZF9… cF9DX1A4SzNUUjp…
#> 10 FOXA1                  3169 c19DX0UwS0pGSl9QMDAyX2Q6cHJhZF9… cF9DX0UwS0pGSjp…
#> # ℹ 16 more rows
#> # ℹ 24 more variables: molecularProfileId <chr>, sampleId <chr>,
#> #   patientId <chr>, studyId <chr>, center <chr>, mutationStatus <chr>,
#> #   validationStatus <chr>, tumorAltCount <int>, tumorRefCount <int>,
#> #   normalAltCount <int>, normalRefCount <int>, startPosition <int>,
#> #   endPosition <int>, referenceAllele <chr>, proteinChange <chr>,
#> #   mutationType <chr>, ncbiBuild <chr>, variantType <chr>, keyword <chr>, …
get_mutations_by_study(molecular_profile_id = "prad_msk_2019_mutations")
#> ℹ Returning all data for the "prad_msk_2019_mutations" molecular profile in the "prad_msk_2019" study
#> # A tibble: 26 × 28
#>    hugoGeneSymbol entrezGeneId uniqueSampleKey                  uniquePatientKey
#>    <chr>                 <int> <chr>                            <chr>           
#>  1 ZFHX3                   463 c19DX004WDQyVF9QMDAyX2Q6cHJhZF9… cF9DX004WDQyVDp…
#>  2 ZFHX3                   463 c19DX004WDQyVF9QMDAyX2Q6cHJhZF9… cF9DX004WDQyVDp…
#>  3 ATR                     545 c19DX004WDQyVF9QMDAyX2Q6cHJhZF9… cF9DX004WDQyVDp…
#>  4 BCL2                    596 c19DX004WDQyVF9QMDAyX2Q6cHJhZF9… cF9DX004WDQyVDp…
#>  5 ETV1                   2115 c19DX1A4SzNUUl9QMDAxX2Q6cHJhZF9… cF9DX1A4SzNUUjp…
#>  6 ETV1                   2115 c19DX1A4SzNUUl9QMDAzX2Q6cHJhZF9… cF9DX1A4SzNUUjp…
#>  7 FAT1                   2195 c19DX004WDQyVF9QMDAyX2Q6cHJhZF9… cF9DX004WDQyVDp…
#>  8 MSH6                   2956 c19DX1A4SzNUUl9QMDAyX2Q6cHJhZF9… cF9DX1A4SzNUUjp…
#>  9 MSH6                   2956 c19DX1A4SzNUUl9QMDAzX2Q6cHJhZF9… cF9DX1A4SzNUUjp…
#> 10 FOXA1                  3169 c19DX0UwS0pGSl9QMDAyX2Q6cHJhZF9… cF9DX0UwS0pGSjp…
#> # ℹ 16 more rows
#> # ℹ 24 more variables: molecularProfileId <chr>, sampleId <chr>,
#> #   patientId <chr>, studyId <chr>, center <chr>, mutationStatus <chr>,
#> #   validationStatus <chr>, tumorAltCount <int>, tumorRefCount <int>,
#> #   normalAltCount <int>, normalRefCount <int>, startPosition <int>,
#> #   endPosition <int>, referenceAllele <chr>, proteinChange <chr>,
#> #   mutationType <chr>, ncbiBuild <chr>, variantType <chr>, keyword <chr>, …
…
