Get information about available studies in a cBioPortal instance — get_studies • cbioportalR
…
      study_id
      Character vector of one single study ID (e.g. "mskimpact") or NULL.
Default is NULL which returns all available studies. Currently multiple study ids are not supported.

    Value

    A tibble of study meta data

    Examples

get_cbioportal_db("public")
get_studies()

#> # A tibble: 303 x 13
#>    name     shortName  description     publicStudy pmid  citation  groups status
#>    <chr>    <chr>      <chr>           <lgl>       <chr> <chr>     <chr>   <int>
#>  1 Oral Sq… Head & ne… Comprehensive … TRUE        2361… Pickerin… ""          0
#>  2 Hepatoc… HCC (Inse… Whole-exome se… TRUE        2582… Schulze … "PUBL…      0
#>  3 Uveal M… UM (QIMR)  Whole-genome o… TRUE        2668… Johansso… "PUBL…      0
#>  4 Neurobl… NBL (AMC)  Whole genome s… TRUE        2236… Molenaar… "PUBL…      0
#>  5 Nasopha… NPC (Sing… Whole exome se… TRUE        2495… Lin et a… "PUBL…      0
#>  6 Neurobl… NBL (Colo… Whole-genome s… TRUE        2646… Peifer e… ""          0
#>  7 Myelody… MDS (Toky… Whole exome se… TRUE        2190… Yoshida … ""          0
#>  8 Insulin… Panet (Sh… Whole exome se… TRUE        2432… Cao et a… ""          0
#>  9 Pleural… PLMESO (N… Whole-exome se… TRUE        2548… Guo et a… ""          0
#> 10 Pilocyt… PAST (Nat… Whole-genome s… TRUE        2381… Jones et… "PUBL…      0
#> # … with 293 more rows, and 5 more variables: importDate <chr>,
#> #   allSampleCount <int>, studyId <chr>, cancerTypeId <chr>,
#> #   referenceGenome <chr>
…
