Overview of Data Retrieval Workflow • cbioportalR
…
You can use test_cbioportal_db at any time throughout your session to check your connection. This can be helpful when troubleshooting issues with your API calls.

test_cbioportal_db()
#> ✔ You are successfully connected!

Get Study Metadata

Now that we are successfully connected, we may want to view all studies available for our chosen database to find the correct study_id corresponding to the data we want to pull. All studies have a unique identifier in the database. You can view all studies available in your database with the following:

all_studies <- available_studies()
all_studies
#> # A tibble: 342 × 13
#>    studyId name  description publicStudy groups status importDate allSampleCount
#>    <chr>   <chr> <chr>       <lgl>       <chr>   <int> <chr>               <int>
#>  1 acc_tc… Adre… "TCGA Adre… TRUE        "PUBL…      0 2022-03-0…             92
#>  2 blca_p… Blad… "Whole exo… TRUE        ""          0 2022-03-0…             34
#>  3 bcc_un… Basa… "Whole-exo… TRUE        "PUBL…      0 2022-03-0…            293
#>  4 all_st… Acut… "Comprehen… TRUE        "PUBL…      0 2022-03-0…             93
#>  5 ampca_… Ampu… "Exome seq… TRUE        "PUBL…      0 2022-03-0…            160
#>  6 blca_d… Blad… "Whole exo… TRUE        "PUBL…      0 2022-03-0…             50
#>  7 blca_m… Blad… "Comprehen… TRUE        "PUBL…      0 2022-03-0…             97
#>  8 blca_b… Blad… "Whole-exo… TRUE        "PUBL…      0 2022-03-0…             99
#>  9 blca_m… Blad… "Genomic P… TRUE        "PUBL…      0 2022-03-0…            109
#> 10 all_st… Hypo… "Whole gen… TRUE        ""          0 2022-03-0…             44
#> # … with 332 more rows, and 5 more variables: readPermission <lgl>,
#> #   cancerTypeId <chr>, referenceGenome <chr>, pmid <chr>, citation <chr>
…
df_pairs <- bind_rows(s1, s2) %>% 
  select(-sampleId)

df_pairs <- df_pairs %>%
  rename("patient_id" = patientId, 
         "study_id" = studyId)

Now we pass this to get_genetics_by_sample()

all_patient_clinical <- get_clinical_by_patient(patient_study_pairs = df_pairs, 
                                                clinical_attribute = in_both)

all_patient_clinical %>% 
  select(-contains("unique"))
#> # A tibble: 34 × 4
#>    patientId studyId         clinicalAttributeId value 
#>    <chr>     <chr>           <chr>               <chr> 
#>  1 P-0001453 blca_nmibc_2017 SAMPLE_COUNT        1     
#>  2 P-0001453 blca_nmibc_2017 SEX                 Male  
#>  3 P-0002166 blca_nmibc_2017 SAMPLE_COUNT        1     
#>  4 P-0002166 blca_nmibc_2017 SEX                 Male  
#>  5 P-0003238 blca_nmibc_2017 SAMPLE_COUNT        1     
#>  6 P-0003238 blca_nmibc_2017 SEX                 Male  
#>  7 P-0003257 blca_nmibc_2017 SAMPLE_COUNT        1     
#>  8 P-0003257 blca_nmibc_2017 SEX                 Female
#>  9 P-0003261 blca_nmibc_2017 SAMPLE_COUNT        1     
#> 10 P-0003261 blca_nmibc_2017 SEX                 Male  
#> # … with 24 more rows
…
